{
  "images" : [
    {
      "idiom" : "universal",
      "filename" : "payment_tab_center_default@2x.png",
      "scale" : "2x"
    }
  ],
  "info" : {
    "version" : 1,
    "author" : "xcode"
  }
}